…
# Safely Selecting a Single Column

As I mentioned from my last post, "data masking" enables you to "blend data with 
the workspace". This allows for you to easily select a single column from a 
data frame like this:


{% highlight r %}
dplyr::select(mtcars, mpg)
{% endhighlight %}



{% highlight text %}
## # A tibble: 32 x 1
##     mpg
##   <dbl>
## 1  21  
## 2  21  
## 3  22.8
## 4  21.4
## 5  18.7
## 6  18.1
## # … with 26 more rows
…
{% highlight text %}
## Note: Using an external vector in selections is ambiguous.
## ℹ Use `all_of(col_to_select)` instead of `col_to_select` to silence this message.
## ℹ See <https://tidyselect.r-lib.org/reference/faq-external-vector.html>.
## This message is displayed once per session.
{% endhighlight %}



{% highlight text %}
## # A tibble: 32 x 1
##     mpg
##   <dbl>
## 1  21  
## 2  21  
## 3  22.8
## 4  21.4
## 5  18.7
## 6  18.1
## # … with 26 more rows
…
The `dplyr::select` figures out you are selecting the column name that is stored
in the `col_to_select` variable and not a phantom column called "col_to_select"
(since it doesn't exist). Now what happens when you do something like this?


{% highlight r %}
gear <- "mpg"
dplyr::select(mtcars, gear)
{% endhighlight %}



{% highlight text %}
## # A tibble: 32 x 1
##    gear
##   <dbl>
## 1     4
## 2     4
## 3     4
## 4     3
## 5     3
## 6     3
## # … with 26 more rows
…
{% highlight r %}
gear <- "mpg"

# Ignores the `gear` variable.
dplyr::select(mtcars, "gear")
{% endhighlight %}



{% highlight text %}
## # A tibble: 32 x 1
##    gear
##   <dbl>
## 1     4
## 2     4
## 3     4
## 4     3
## 5     3
## 6     3
## # … with 26 more rows
{% endhighlight %}

If you want to use a variable to store the column name, then the safest thing to 
do is to combine it with the `.data` pronoun:


{% highlight r %}
gear <- "mpg"
dplyr::select(mtcars, .data[[gear]])
{% endhighlight %}



{% highlight text %}
## # A tibble: 32 x 1
##     mpg
##   <dbl>
## 1  21  
## 2  21  
## 3  22.8
## 4  21.4
## 5  18.7
## 6  18.1
## # … with 26 more rows
…
# Safely Selecting Multiple Columns

If you want to safely select multiple columns, then you should start by double
quoting the columns names to make it explicit:


{% highlight r %}
dplyr::select(mtcars, "mpg", "carb")
{% endhighlight %}



{% highlight text %}
## # A tibble: 32 x 2
##     mpg  carb
##   <dbl> <dbl>
## 1  21       4
## 2  21       4
## 3  22.8     1
## 4  21.4     1
## 5  18.7     2
## 6  18.1     1
## # … with 26 more rows
{% endhighlight %}

If you want to use a variable to select multiple columns, you should create a 
character vector storing the different column names: 


{% highlight r %}
cols_to_select <- c("mpg", "carb")
dplyr::select(mtcars, cols_to_select)
{% endhighlight %}



{% highlight text %}
## # A tibble: 32 x 2
##     mpg  carb
##   <dbl> <dbl>
## 1  21       4
## 2  21       4
## 3  22.8     1
## 4  21.4     1
## 5  18.7     2
## 6  18.1     1
## # … with 26 more rows
…
Here the `dplyr::select` function is smart enough to figure out that you are
asking for multiple columns stored in the `cols_to_select` variable. However,
what happens if you have something like this?


{% highlight r %}
gear <- c("mpg", "carb")
dplyr::select(mtcars, gear)
{% endhighlight %}



{% highlight text %}
## # A tibble: 32 x 1
##    gear
##   <dbl>
## 1     4
## 2     4
## 3     4
## 4     3
## 5     3
## 6     3
## # … with 26 more rows
…
Similar to the scenario where we were selecting a single column, data masking
results in the "gear" column name taking precedence over the values in the 
`gear` variable. This ends up creating an unexpected result. This is where the
`all_of` function comes in:


{% highlight r %}
gear <- c("mpg", "carb")
dplyr::select(mtcars, all_of(gear))
{% endhighlight %}



{% highlight text %}
## # A tibble: 32 x 2
##     mpg  carb
##   <dbl> <dbl>
## 1  21       4
## 2  21       4
## 3  22.8     1
## 4  21.4     1
## 5  18.7     2
## 6  18.1     1
## # … with 26 more rows
…
# `.data` vs. `all_of`

Near the beginning of the post, we saw the following note when using a variable
with the `dplyr::select` function:


{% highlight r %}
col_to_select <- "mpg"
dplyr::select(mtcars, col_to_select)
{% endhighlight %}



{% highlight text %}
## # A tibble: 32 x 1
##     mpg
##   <dbl>
## 1  21  
## 2  21  
## 3  22.8
## 4  21.4
## 5  18.7
## 6  18.1
## # … with 26 more rows
…
Based on this, it seems that using the function `all_of` is the recommended way 
to select columns when using a variable even when it's only a single column. 
In other words,


{% highlight r %}
col_to_select <- "mpg"
dplyr::select(mtcars, all_of(col_to_select))
{% endhighlight %}



{% highlight text %}
## # A tibble: 32 x 1
##     mpg
##   <dbl>
## 1  21  
## 2  21  
## 3  22.8
## 4  21.4
## 5  18.7
## 6  18.1
## # … with 26 more rows
…
